wave.vcd
$date
  Sat Feb 21 18:31:25 2026
$end
$version
  GHDL v0
$end
$timescale
  1 fs
$end
$scope module standard $end
$upscope $end
$scope module env $end
$upscope $end
$scope module textio $end
$upscope $end
$scope module std_logic_1164 $end
$upscope $end
$scope module std_logic_arith $end
$upscope $end
$scope module std_logic_unsigned $end
$upscope $end
$scope module std_logic_textio $end
$upscope $end
$scope module processorcachetb $end
$var reg 1 ! clk $end
$var reg 1 " reset $end
$var reg 32 # d_addr[31:0] $end
$var reg 1 $ d_rdstb $end
$var reg 1 % d_wrstb $end
$var reg 32 & d_dataout[31:0] $end
$var reg 32 ' d_datain[31:0] $end
$var reg 1 ( d_rdy $end
$var reg 2 ) counter_cache[1:0] $end
$var reg 27 * addr_block[26:0] $end
$var reg 1 + rdstb_block $end
$var reg 1 , wrstb_block $end
$var reg 1 - rdwr_data $end
$var reg 1 . rdy_block $end
$var reg 32 / datain_mem[31:0] $end
$var reg 32 0 dataout_mem[31:0] $end
$var integer 32 1 rd_txn_count $end
$var integer 32 2 wr_txn_count $end
$scope module countergen $end
$var reg 1 3 clk $end
$var reg 1 4 reset $end
$var reg 2 5 counter[1:0] $end
$var reg 2 6 counter_up[1:0] $end
$upscope $end
$scope module cache_mem $end
$var reg 1 7 clk $end
$var reg 1 8 reset $end
$var reg 2 9 counter[1:0] $end
$var reg 32 : addr[31:0] $end
$var reg 32 ; datain[31:0] $end
$var reg 1 < rdstb $end
$var reg 1 = wrstb $end
$var reg 1 > d_rdy $end
$var reg 32 ? dataout[31:0] $end
$var reg 27 @ addr_block[26:0] $end
$var reg 1 A rdstb_block $end
$var reg 1 B wrstb_block $end
$var reg 1 C rdwr_data $end
$var reg 1 D rdy_block $end
$var reg 32 E datain_mem[31:0] $end
$var reg 32 F dataout_mem[31:0] $end
$comment mem_cache is not handled $end
$var reg 32 G aux_rd[31:0] $end
$var reg 32 H aux_rd2[31:0] $end
$var reg 4 I reg_valid_line[3:0] $end
$var reg 4 J next_valid_line[3:0] $end
$var reg 4 K reg_dirty_line[3:0] $end
$var reg 4 L next_dirty_line[3:0] $end
$comment regs_label is not handled $end
$comment next_label is not handled $end
$var reg 2 M reg_repl_line[1:0] $end
$var reg 2 N next_repl_line[1:0] $end
$var reg 2 O line_sel_proc[1:0] $end
$comment curr_st_block is not handled $end
$comment next_st_block is not handled $end
$comment curr_st_cache is not handled $end
$comment next_st_cache is not handled $end
$var reg 3 P reg_addr_offset[2:0] $end
$var reg 3 Q next_addr_offset[2:0] $end
$var reg 1 R send_block $end
$var reg 1 S write_block $end
$var reg 1 T rd_mem_proc $end
$var reg 1 U wr_mem_proc $end
$var reg 1 V rd_mem_block $end
$var reg 1 W wr_mem_block $end
$var reg 1 X end_rd_block $end
$var reg 1 Y end_wr_block $end
$upscope $end
$scope module datablock_mem $end
$var reg 1 Z clk $end
$var reg 1 [ reset $end
$var reg 27 \ addr_block[26:0] $end
$var reg 32 ] datain[31:0] $end
$var reg 1 ^ rdstb_block $end
$var reg 1 _ wrstb_block $end
$var reg 1 ` rdwr_data $end
$var reg 1 a rdy_block $end
$var reg 32 b dataout[31:0] $end
$comment memo is not handled $end
$var reg 32 c aux[31:0] $end
$comment curr_st is not handled $end
$comment next_st is not handled $end
$var reg 3 d count_time[2:0] $end
$var reg 3 e next_count_time[2:0] $end
$var reg 3 f reg_addr_offset[2:0] $end
$var reg 3 g next_addr_offset[2:0] $end
$var reg 1 h rd_memory $end
$var reg 1 i wr_memory $end
$upscope $end
$upscope $end
$enddefinitions $end
#0
0!
1"
b00000000000000000000000000000000 #
0$
0%
b00000000000000000000000000000000 &
b00000000000000000000000000000000 '
1(
b00 )
b000000000000000000000000000 *
0+
0,
0-
1.
b00000000000000000000000000000000 /
b00000000000000000000000000000000 0
b0 1
b0 2
03
14
b00 5
b00 6
07
18
b00 9
b00000000000000000000000000000000 :
b00000000000000000000000000000000 ;
0<
0=
1>
b00000000000000000000000000000000 ?
b000000000000000000000000000 @
0A
0B
0C
1D
b00000000000000000000000000000000 E
b00000000000000000000000000000000 F
b00000000000000000000000000000000 G
b00000000000000000000000000000000 H
b0000 I
b0000 J
b0000 K
b0000 L
b00 M
b00 N
b00 O
b000 P
b000 Q
0R
0S
0T
0U
0V
0W
0X
0Y
0Z
1[
b000000000000000000000000000 \
b00000000000000000000000000000000 ]
0^
0_
0`
1a
b00000000000000000000000000000000 b
b00000000000000000000000000000000 c
b000 d
b000 e
b000 f
b000 g
0h
0i
#25000000
1!
13
17
1Z
#50000000
0!
03
07
0Z
#75000000
1!
13
17
1Z
#100000000
0!
03
07
0Z
#120000000
0"
04
08
0[
#125000000
1!
1$
0(
b01 )
1+
0.
13
b01 5
b01 6
17
b01 9
1<
0>
1A
0D
b01 N
b01 O
1S
1Z
1^
0a
b001 e
#150000000
0!
03
07
0>
1A
b01 M
0Z
0a
b001 d
b010 e
#175000000
1!
b10 )
b1 1
13
b10 5
b10 6
17
b10 9
0>
1Z
#200000000
0!
03
07
0Z
0a
b010 d
b011 e
#225000000
1!
b11 )
13
b11 5
b11 6
17
b11 9
0>
1Z
#250000000
0!
03
07
0Z
0a
b011 d
b000 e
#275000000
1!
b00 )
13
b00 5
b00 6
17
b00 9
0>
1Z
#300000000
0!
03
07
0Z
0a
b000 d
#325000000
1!
b01 )
13
b01 5
b01 6
17
b01 9
0>
1Z
#350000000
0!
1-
03
07
1A
1C
0Z
1`
0a
b001 g
1h
#375000000
1!
b10 )
b00000000000000000000000000000001 /
13
b10 5
b10 6
17
b10 9
0>
b00000000000000000000000000000001 E
1Z
b00000000000000000000000000000001 b
b00000000000000000000000000000001 c
#400000000
0!
03
07
1A
b001 Q
1W
0Z
1`
0a
b001 f
b010 g
#425000000
1!
b11 )
b00000000000000000000000000000010 /
13
b11 5
b11 6
17
b11 9
0>
b00000000000000000000000000000010 E
1Z
b00000000000000000000000000000010 b
b00000000000000000000000000000010 c
#450000000
0!
03
07
1A
b001 P
b010 Q
0Z
1`
0a
b010 f
b011 g
#475000000
1!
b00 )
b00000000000000000000000000000100 /
13
b00 5
b00 6
17
b00 9
0>
b00000000000000000000000000000100 E
1Z
b00000000000000000000000000000100 b
b00000000000000000000000000000100 c
#500000000
0!
03
07
1A
b010 P
b011 Q
0Z
1`
0a
b011 f
b100 g
#525000000
1!
b01 )
b00000000000000000000000000001000 /
13
b01 5
b01 6
17
b01 9
0>
b00000000000000000000000000001000 E
1Z
b00000000000000000000000000001000 b
b00000000000000000000000000001000 c
#550000000
0!
03
07
1A
b011 P
b100 Q
0Z
1`
0a
b100 f
b101 g
#575000000
1!
b10 )
b00000000000000000000000000001100 /
13
b10 5
b10 6
17
b10 9
0>
b00000000000000000000000000001100 E
1Z
b00000000000000000000000000001100 b
b00000000000000000000000000001100 c
#600000000
0!
03
07
1A
b100 P
b101 Q
0Z
1`
0a
b101 f
b110 g
#625000000
1!
b11 )
b00000000000000000000000000010000 /
13
b11 5
b11 6
17
b11 9
0>
b00000000000000000000000000010000 E
1Z
b00000000000000000000000000010000 b
b00000000000000000000000000010000 c
#650000000
0!
03
07
1A
b101 P
b110 Q
0Z
1`
0a
b110 f
b111 g
#675000000
1!
b00 )
b00000000000000000000000000010100 /
13
b00 5
b00 6
17
b00 9
0>
b00000000000000000000000000010100 E
1Z
b00000000000000000000000000010100 b
b00000000000000000000000000010100 c
#700000000
0!
1.
03
07
1A
1D
b110 P
b111 Q
0Z
1`
1a
b111 f
b000 g
#725000000
1!
b01 )
b00000000000000000000000000011000 /
13
b01 5
b01 6
17
b01 9
0>
b00000000000000000000000000011000 E
1Z
b00000000000000000000000000011000 b
b00000000000000000000000000011000 c
#750000000
0!
0+
0-
1.
03
07
0A
0C
1D
b111 P
b000 Q
0Z
0^
0`
1a
b000 e
b000 f
0h
#775000000
1!
b10 )
13
b10 5
b10 6
17
b10 9
0>
1Z
#800000000
0!
1(
03
07
1>
b0010 J
b000 P
1T
0W
1Y
0Z
#825000000
1!
b00000000000000000000000000000001 '
b11 )
13
b11 5
b11 6
17
b11 9
1>
b00000000000000000000000000000001 ?
b00000000000000000000000000000001 G
1Z
#850000000
0!
0+
1.
03
07
0A
1D
b0010 I
0S
0Y
0Z
0^
1a
b000 e
#875000000
1!
0$
b00 )
13
b00 5
b00 6
17
b00 9
0<
0T
1Z
#900000000
0!
03
07
0Z
#925000000
1!
b01 )
13
b01 5
b01 6
17
b01 9
1Z
#950000000
0!
03
07
0Z
#975000000
1!
b00000000000000000000000000100000 #
1$
0(
b10 )
b000000000000000000000000001 *
1+
0.
13
b10 5
b10 6
17
b10 9
b00000000000000000000000000100000 :
1<
0>
b000000000000000000000000001 @
1A
0D
b10 N
b10 O
1S
1Z
b000000000000000000000000001 \
1^
0a
b001 e
#1000000000
0!
03
07
0>
1A
b10 M
0Z
0a
b001 d
b010 e
#1025000000
1!
b11 )
b10 1
13
b11 5
b11 6
17
b11 9
0>
1Z
#1050000000
0!
03
07
0Z
0a
b010 d
b011 e
#1075000000
1!
b00 )
13
b00 5
b00 6
17
b00 9
0>
1Z
#1100000000
0!
03
07
0Z
0a
b011 d
b000 e
#1125000000
1!
b01 )
13
b01 5
b01 6
17
b01 9
0>
1Z
#1150000000
0!
03
07
0Z
0a
b000 d
#1175000000
1!
b10 )
13
b10 5
b10 6
17
b10 9
0>
1Z
#1200000000
0!
1-
03
07
1A
1C
0Z
1`
0a
b001 g
1h
#1225000000
1!
b11 )
b00000000000000000000000000001010 /
13
b11 5
b11 6
17
b11 9
0>
b00000000000000000000000000001010 E
1Z
b00000000000000000000000000001010 b
b00000000000000000000000000001010 c
#1250000000
0!
03
07
1A
b001 Q
1W
0Z
1`
0a
b001 f
b010 g
#1275000000
1!
b00 )
b00000000000000000000000000010100 /
13
b00 5
b00 6
17
b00 9
0>
b00000000000000000000000000010100 E
1Z
b00000000000000000000000000010100 b
b00000000000000000000000000010100 c
#1300000000
0!
03
07
1A
b001 P
b010 Q
0Z
1`
0a
b010 f
b011 g
#1325000000
1!
b01 )
b00000000000000000000000000011110 /
13
b01 5
b01 6
17
b01 9
0>
b00000000000000000000000000011110 E
1Z
b00000000000000000000000000011110 b
b00000000000000000000000000011110 c
#1350000000
0!
03
07
1A
b010 P
b011 Q
0Z
1`
0a
b011 f
b100 g
#1375000000
1!
b10 )
b00000000000000000000000000101000 /
13
b10 5
b10 6
17
b10 9
0>
b00000000000000000000000000101000 E
1Z
b00000000000000000000000000101000 b
b00000000000000000000000000101000 c
#1400000000
0!
03
07
1A
b011 P
b100 Q
0Z
1`
0a
b100 f
b101 g
#1425000000
1!
b11 )
b00000000000000000000000000110010 /
13
b11 5
b11 6
17
b11 9
0>
b00000000000000000000000000110010 E
1Z
b00000000000000000000000000110010 b
b00000000000000000000000000110010 c
#1450000000
0!
03
07
1A
b100 P
b101 Q
0Z
1`
0a
b101 f
b110 g
#1475000000
1!
b00 )
b00000000000000000000000000111100 /
13
b00 5
b00 6
17
b00 9
0>
b00000000000000000000000000111100 E
1Z
b00000000000000000000000000111100 b
b00000000000000000000000000111100 c
#1500000000
0!
03
07
1A
b101 P
b110 Q
0Z
1`
0a
b110 f
b111 g
#1525000000
1!
b01 )
b00000000000000000000000001000110 /
13
b01 5
b01 6
17
b01 9
0>
b00000000000000000000000001000110 E
1Z
b00000000000000000000000001000110 b
b00000000000000000000000001000110 c
#1550000000
0!
1.
03
07
1A
1D
b110 P
b111 Q
0Z
1`
1a
b111 f
b000 g
#1575000000
1!
b10 )
b00000000000000000000000001010000 /
13
b10 5
b10 6
17
b10 9
0>
b00000000000000000000000001010000 E
1Z
b00000000000000000000000001010000 b
b00000000000000000000000001010000 c
#1600000000
0!
0+
0-
1.
03
07
0A
0C
1D
b111 P
b000 Q
0Z
0^
0`
1a
b000 e
b000 f
0h
#1625000000
1!
b11 )
13
b11 5
b11 6
17
b11 9
0>
1Z
#1650000000
0!
1(
03
07
1>
b0110 J
b000 P
1T
0W
1Y
0Z
#1675000000
1!
b00000000000000000000000000001010 '
b00 )
13
b00 5
b00 6
17
b00 9
1>
b00000000000000000000000000001010 ?
b00000000000000000000000000001010 G
1Z
#1700000000
0!
0+
1.
03
07
0A
1D
b0110 I
0S
0Y
0Z
0^
1a
b000 e
#1725000000
1!
0$
b01 )
13
b01 5
b01 6
17
b01 9
0<
0T
1Z
#1750000000
0!
03
07
0Z
#1775000000
1!
b10 )
13
b10 5
b10 6
17
b10 9
1Z
#1800000000
0!
03
07
0Z
#1825000000
1!
b00000000000000000000000001000000 #
1$
0(
b11 )
b000000000000000000000000010 *
1+
0.
13
b11 5
b11 6
17
b11 9
b00000000000000000000000001000000 :
1<
0>
b000000000000000000000000010 @
1A
0D
b11 N
b11 O
1S
1Z
b000000000000000000000000010 \
1^
0a
b001 e
#1850000000
0!
03
07
0>
1A
b11 M
0Z
0a
b001 d
b010 e
#1875000000
1!
b00 )
b11 1
13
b00 5
b00 6
17
b00 9
0>
1Z
#1900000000
0!
03
07
0Z
0a
b010 d
b011 e
#1925000000
1!
b01 )
13
b01 5
b01 6
17
b01 9
0>
1Z
#1950000000
0!
03
07
0Z
0a
b011 d
b000 e
#1975000000
1!
b10 )
13
b10 5
b10 6
17
b10 9
0>
1Z
#2000000000
0!
03
07
0Z
0a
b000 d
#2025000000
1!
b11 )
13
b11 5
b11 6
17
b11 9
0>
1Z
#2050000000
0!
1-
03
07
1A
1C
0Z
1`
0a
b001 g
1h
#2075000000
1!
b00 )
b00000000000000000000000000000000 /
13
b00 5
b00 6
17
b00 9
0>
b00000000000000000000000000000000 E
1Z
b00000000000000000000000000000000 b
b00000000000000000000000000000000 c
#2100000000
0!
03
07
1A
b001 Q
1W
0Z
1`
0a
b001 f
b010 g
#2125000000
1!
b01 )
13
b01 5
b01 6
17
b01 9
0>
1Z
#2150000000
0!
03
07
1A
b001 P
b010 Q
0Z
1`
0a
b010 f
b011 g
#2175000000
1!
b10 )
13
b10 5
b10 6
17
b10 9
0>
1Z
#2200000000
0!
03
07
1A
b010 P
b011 Q
0Z
1`
0a
b011 f
b100 g
#2225000000
1!
b11 )
13
b11 5
b11 6
17
b11 9
0>
1Z
#2250000000
0!
03
07
1A
b011 P
b100 Q
0Z
1`
0a
b100 f
b101 g
#2275000000
1!
b00 )
13
b00 5
b00 6
17
b00 9
0>
1Z
#2300000000
0!
03
07
1A
b100 P
b101 Q
0Z
1`
0a
b101 f
b110 g
#2325000000
1!
b01 )
13
b01 5
b01 6
17
b01 9
0>
1Z
#2350000000
0!
03
07
1A
b101 P
b110 Q
0Z
1`
0a
b110 f
b111 g
#2375000000
1!
b10 )
13
b10 5
b10 6
17
b10 9
0>
1Z
#2400000000
0!
1.
03
07
1A
1D
b110 P
b111 Q
0Z
1`
1a
b111 f
b000 g
#2425000000
1!
b11 )
13
b11 5
b11 6
17
b11 9
0>
1Z
#2450000000
0!
0+
0-
1.
03
07
0A
0C
1D
b111 P
b000 Q
0Z
0^
0`
1a
b000 e
b000 f
0h
#2475000000
1!
b00 )
13
b00 5
b00 6
17
b00 9
0>
1Z
#2500000000
0!
1(
03
07
1>
b1110 J
b000 P
1T
0W
1Y
0Z
#2525000000
1!
b00000000000000000000000000000000 '
b01 )
13
b01 5
b01 6
17
b01 9
1>
b00000000000000000000000000000000 ?
b00000000000000000000000000000000 G
1Z
#2550000000
0!
0+
1.
03
07
0A
1D
b1110 I
0S
0Y
0Z
0^
1a
b000 e
#2575000000
1!
0$
b10 )
13
b10 5
b10 6
17
b10 9
0<
0T
1Z
#2600000000
0!
03
07
0Z
#2625000000
1!
b11 )
13
b11 5
b11 6
17
b11 9
1Z
#2650000000
0!
03
07
0Z
#2675000000
1!
b00000000000000000000000001100000 #
1$
0(
b00 )
b000000000000000000000000011 *
1+
0.
13
b00 5
b00 6
17
b00 9
b00000000000000000000000001100000 :
1<
0>
b000000000000000000000000011 @
1A
0D
b00 N
b00 O
1S
1Z
b000000000000000000000000011 \
1^
0a
b001 e
#2700000000
0!
03
07
0>
1A
b00 M
0Z
0a
b001 d
b010 e
#2725000000
1!
b01 )
b100 1
13
b01 5
b01 6
17
b01 9
0>
1Z
#2750000000
0!
03
07
0Z
0a
b010 d
b011 e
#2775000000
1!
b10 )
13
b10 5
b10 6
17
b10 9
0>
1Z
#2800000000
0!
03
07
0Z
0a
b011 d
b000 e
#2825000000
1!
b11 )
13
b11 5
b11 6
17
b11 9
0>
1Z
#2850000000
0!
03
07
0Z
0a
b000 d
#2875000000
1!
b00 )
13
b00 5
b00 6
17
b00 9
0>
1Z
#2900000000
0!
1-
03
07
1A
1C
0Z
1`
0a
b001 g
1h
#2925000000
1!
b01 )
13
b01 5
b01 6
17
b01 9
0>
1Z
#2950000000
0!
03
07
1A
b001 Q
1W
0Z
1`
0a
b001 f
b010 g
#2975000000
1!
b10 )
13
b10 5
b10 6
17
b10 9
0>
1Z
#3000000000
0!
03
07
1A
b001 P
b010 Q
0Z
1`
0a
b010 f
b011 g
#3025000000
1!
b11 )
13
b11 5
b11 6
17
b11 9
0>
1Z
#3050000000
0!
03
07
1A
b010 P
b011 Q
0Z
1`
0a
b011 f
b100 g
#3075000000
1!
b00 )
13
b00 5
b00 6
17
b00 9
0>
1Z
#3100000000
0!
03
07
1A
b011 P
b100 Q
0Z
1`
0a
b100 f
b101 g
#3125000000
1!
b01 )
13
b01 5
b01 6
17
b01 9
0>
1Z
#3150000000
0!
03
07
1A
b100 P
b101 Q
0Z
1`
0a
b101 f
b110 g
#3175000000
1!
b10 )
13
b10 5
b10 6
17
b10 9
0>
1Z
#3200000000
0!
03
07
1A
b101 P
b110 Q
0Z
1`
0a
b110 f
b111 g
#3225000000
1!
b11 )
13
b11 5
b11 6
17
b11 9
0>
1Z
#3250000000
0!
1.
03
07
1A
1D
b110 P
b111 Q
0Z
1`
1a
b111 f
b000 g
#3275000000
1!
b00 )
13
b00 5
b00 6
17
b00 9
0>
1Z
#3300000000
0!
0+
0-
1.
03
07
0A
0C
1D
b111 P
b000 Q
0Z
0^
0`
1a
b000 e
b000 f
0h
#3325000000
1!
b01 )
13
b01 5
b01 6
17
b01 9
0>
1Z
#3350000000
0!
1(
03
07
1>
b1111 J
b000 P
1T
0W
1Y
0Z
#3375000000
1!
b10 )
13
b10 5
b10 6
17
b10 9
1>
1Z
#3400000000
0!
0+
1.
03
07
0A
1D
b1111 I
0S
0Y
0Z
0^
1a
b000 e
#3425000000
1!
b00000000000000000000000000000000 #
b11 )
b000000000000000000000000000 *
13
b11 5
b11 6
17
b11 9
b00000000000000000000000000000000 :
b000000000000000000000000000 @
b01 O
1Z
b000000000000000000000000000 \
#3450000000
0!
03
07
0Z
#3475000000
1!
b00000000000000000000000000000001 '
b00 )
13
b00 5
b00 6
17
b00 9
b00000000000000000000000000000001 ?
b00000000000000000000000000000001 G
1Z
#3500000000
0!
03
07
0Z
#3525000000
1!
b00000000000000000000000000100000 #
b01 )
b000000000000000000000000001 *
13
b01 5
b01 6
17
b01 9
b00000000000000000000000000100000 :
b000000000000000000000000001 @
b10 O
1Z
b000000000000000000000000001 \
#3550000000
0!
03
07
0Z
#3575000000
1!
b00000000000000000000000000001010 '
b10 )
13
b10 5
b10 6
17
b10 9
b00000000000000000000000000001010 ?
b00000000000000000000000000001010 G
1Z
#3600000000
0!
03
07
0Z
#3625000000
1!
b00000000000000000000000001000000 #
b11 )
b000000000000000000000000010 *
13
b11 5
b11 6
17
b11 9
b00000000000000000000000001000000 :
b000000000000000000000000010 @
b11 O
1Z
b000000000000000000000000010 \
#3650000000
0!
03
07
0Z
#3675000000
1!
b00000000000000000000000000000000 '
b00 )
13
b00 5
b00 6
17
b00 9
b00000000000000000000000000000000 ?
b00000000000000000000000000000000 G
1Z
#3700000000
0!
03
07
0Z
#3725000000
1!
b00000000000000000000000001100000 #
b01 )
b000000000000000000000000011 *
13
b01 5
b01 6
17
b01 9
b00000000000000000000000001100000 :
b000000000000000000000000011 @
b00 O
1Z
b000000000000000000000000011 \
#3750000000
0!
03
07
0Z
#3775000000
1!
b10 )
13
b10 5
b10 6
17
b10 9
1Z
#3800000000
0!
03
07
0Z
#3825000000
1!
0$
b11 )
13
b11 5
b11 6
17
b11 9
0<
0T
1Z
#3850000000
0!
03
07
0Z
#3875000000
1!
b00 )
13
b00 5
b00 6
17
b00 9
1Z
#3900000000
0!
03
07
0Z
#3925000000
1!
b01 )
13
b01 5
b01 6
17
b01 9
1Z
#3950000000
0!
03
07
0Z
#3975000000
1!
b00000000000000000000000010000000 #
1$
0(
b10 )
b000000000000000000000000100 *
1+
0.
13
b10 5
b10 6
17
b10 9
b00000000000000000000000010000000 :
1<
0>
b000000000000000000000000100 @
1A
0D
b10 N
b10 O
1S
1Z
b000000000000000000000000100 \
1^
0a
b001 e
#4000000000
0!
03
07
0>
1A
b10 M
0Z
0a
b001 d
b010 e
#4025000000
1!
b11 )
b101 1
13
b11 5
b11 6
17
b11 9
0>
1Z
#4050000000
0!
03
07
0Z
0a
b010 d
b011 e
#4075000000
1!
b00 )
13
b00 5
b00 6
17
b00 9
0>
1Z
#4100000000
0!
03
07
0Z
0a
b011 d
b000 e
#4125000000
1!
b01 )
13
b01 5
b01 6
17
b01 9
0>
1Z
#4150000000
0!
03
07
0Z
0a
b000 d
#4175000000
1!
b10 )
13
b10 5
b10 6
17
b10 9
0>
1Z
#4200000000
0!
1-
03
07
1A
1C
0Z
1`
0a
b001 g
1h
#4225000000
1!
b11 )
13
b11 5
b11 6
17
b11 9
0>
1Z
#4250000000
0!
03
07
1A
b001 Q
1W
0Z
1`
0a
b001 f
b010 g
#4275000000
1!
b00 )
13
b00 5
b00 6
17
b00 9
0>
1Z
#4300000000
0!
03
07
1A
b001 P
b010 Q
0Z
1`
0a
b010 f
b011 g
#4325000000
1!
b01 )
13
b01 5
b01 6
17
b01 9
0>
1Z
#4350000000
0!
03
07
1A
b010 P
b011 Q
0Z
1`
0a
b011 f
b100 g
#4375000000
1!
b10 )
13
b10 5
b10 6
17
b10 9
0>
1Z
#4400000000
0!
03
07
1A
b011 P
b100 Q
0Z
1`
0a
b100 f
b101 g
#4425000000
1!
b11 )
13
b11 5
b11 6
17
b11 9
0>
1Z
#4450000000
0!
03
07
1A
b100 P
b101 Q
0Z
1`
0a
b101 f
b110 g
#4475000000
1!
b00 )
13
b00 5
b00 6
17
b00 9
0>
1Z
#4500000000
0!
03
07
1A
b101 P
b110 Q
0Z
1`
0a
b110 f
b111 g
#4525000000
1!
b01 )
13
b01 5
b01 6
17
b01 9
0>
1Z
#4550000000
0!
1.
03
07
1A
1D
b110 P
b111 Q
0Z
1`
1a
b111 f
b000 g
#4575000000
1!
b10 )
13
b10 5
b10 6
17
b10 9
0>
1Z
#4600000000
0!
0+
0-
1.
03
07
0A
0C
1D
b111 P
b000 Q
0Z
0^
0`
1a
b000 e
b000 f
0h
#4625000000
1!
b11 )
13
b11 5
b11 6
17
b11 9
0>
1Z
#4650000000
0!
1(
03
07
1>
b000 P
1T
0W
1Y
0Z
#4675000000
1!
b00 )
13
b00 5
b00 6
17
b00 9
1>
1Z
#4700000000
0!
0+
1.
03
07
0A
1D
0S
0Y
0Z
0^
1a
b000 e
#4725000000
1!
b00000000000000000000000000000000 #
b01 )
b000000000000000000000000000 *
13
b01 5
b01 6
17
b01 9
b00000000000000000000000000000000 :
b000000000000000000000000000 @
b01 O
1Z
b000000000000000000000000000 \
#4750000000
0!
03
07
0Z
#4775000000
1!
b00000000000000000000000000000001 '
b10 )
13
b10 5
b10 6
17
b10 9
b00000000000000000000000000000001 ?
b00000000000000000000000000000001 G
1Z
#4800000000
0!
03
07
0Z
#4825000000
1!
b00000000000000000000000001000000 #
b11 )
b000000000000000000000000010 *
13
b11 5
b11 6
17
b11 9
b00000000000000000000000001000000 :
b000000000000000000000000010 @
b11 O
1Z
b000000000000000000000000010 \
#4850000000
0!
03
07
0Z
#4875000000
1!
b00000000000000000000000000000000 '
b00 )
13
b00 5
b00 6
17
b00 9
b00000000000000000000000000000000 ?
b00000000000000000000000000000000 G
1Z
#4900000000
0!
03
07
0Z
#4925000000
1!
b00000000000000000000000001100000 #
b01 )
b000000000000000000000000011 *
13
b01 5
b01 6
17
b01 9
b00000000000000000000000001100000 :
b000000000000000000000000011 @
b00 O
1Z
b000000000000000000000000011 \
#4950000000
0!
03
07
0Z
#4975000000
1!
b10 )
13
b10 5
b10 6
17
b10 9
1Z
#5000000000
0!
03
07
0Z
#5025000000
1!
b00000000000000000000000000100000 #
0(
b11 )
b000000000000000000000000001 *
1+
0.
13
b11 5
b11 6
17
b11 9
b00000000000000000000000000100000 :
0>
b000000000000000000000000001 @
1A
0D
b11 N
b11 O
1S
0T
1Z
b000000000000000000000000001 \
1^
0a
b001 e
#5050000000
0!
03
07
0>
1A
b11 M
0Z
0a
b001 d
b010 e
#5075000000
1!
b00 )
b110 1
13
b00 5
b00 6
17
b00 9
0>
1Z
#5100000000
0!
03
07
0Z
0a
b010 d
b011 e
#5125000000
1!
b01 )
13
b01 5
b01 6
17
b01 9
0>
1Z
#5150000000
0!
03
07
0Z
0a
b011 d
b000 e
#5175000000
1!
b10 )
13
b10 5
b10 6
17
b10 9
0>
1Z
#5200000000
0!
03
07
0Z
0a
b000 d
#5225000000
1!
b11 )
13
b11 5
b11 6
17
b11 9
0>
1Z
#5250000000
0!
1-
03
07
1A
1C
0Z
1`
0a
b001 g
1h
#5275000000
1!
b00 )
b00000000000000000000000000001010 /
13
b00 5
b00 6
17
b00 9
0>
b00000000000000000000000000001010 E
1Z
b00000000000000000000000000001010 b
b00000000000000000000000000001010 c
#5300000000
0!
03
07
1A
b001 Q
1W
0Z
1`
0a
b001 f
b010 g
#5325000000
1!
b01 )
b00000000000000000000000000010100 /
13
b01 5
b01 6
17
b01 9
0>
b00000000000000000000000000010100 E
1Z
b00000000000000000000000000010100 b
b00000000000000000000000000010100 c
#5350000000
0!
03
07
1A
b001 P
b010 Q
0Z
1`
0a
b010 f
b011 g
#5375000000
1!
b10 )
b00000000000000000000000000011110 /
13
b10 5
b10 6
17
b10 9
0>
b00000000000000000000000000011110 E
1Z
b00000000000000000000000000011110 b
b00000000000000000000000000011110 c
#5400000000
0!
03
07
1A
b010 P
b011 Q
0Z
1`
0a
b011 f
b100 g
#5425000000
1!
b11 )
b00000000000000000000000000101000 /
13
b11 5
b11 6
17
b11 9
0>
b00000000000000000000000000101000 E
1Z
b00000000000000000000000000101000 b
b00000000000000000000000000101000 c
#5450000000
0!
03
07
1A
b011 P
b100 Q
0Z
1`
0a
b100 f
b101 g
#5475000000
1!
b00 )
b00000000000000000000000000110010 /
13
b00 5
b00 6
17
b00 9
0>
b00000000000000000000000000110010 E
1Z
b00000000000000000000000000110010 b
b00000000000000000000000000110010 c
#5500000000
0!
03
07
1A
b100 P
b101 Q
0Z
1`
0a
b101 f
b110 g
#5525000000
1!
b01 )
b00000000000000000000000000111100 /
13
b01 5
b01 6
17
b01 9
0>
b00000000000000000000000000111100 E
1Z
b00000000000000000000000000111100 b
b00000000000000000000000000111100 c
#5550000000
0!
03
07
1A
b101 P
b110 Q
0Z
1`
0a
b110 f
b111 g
#5575000000
1!
b10 )
b00000000000000000000000001000110 /
13
b10 5
b10 6
17
b10 9
0>
b00000000000000000000000001000110 E
1Z
b00000000000000000000000001000110 b
b00000000000000000000000001000110 c
#5600000000
0!
1.
03
07
1A
1D
b110 P
b111 Q
0Z
1`
1a
b111 f
b000 g
#5625000000
1!
b11 )
b00000000000000000000000001010000 /
13
b11 5
b11 6
17
b11 9
0>
b00000000000000000000000001010000 E
1Z
b00000000000000000000000001010000 b
b00000000000000000000000001010000 c
#5650000000
0!
0+
0-
1.
03
07
0A
0C
1D
b111 P
b000 Q
0Z
0^
0`
1a
b000 e
b000 f
0h
#5675000000
1!
b00 )
13
b00 5
b00 6
17
b00 9
0>
1Z
#5700000000
0!
1(
03
07
1>
b000 P
1T
0W
1Y
0Z
#5725000000
1!
b00000000000000000000000000001010 '
b01 )
13
b01 5
b01 6
17
b01 9
1>
b00000000000000000000000000001010 ?
b00000000000000000000000000001010 G
1Z
#5750000000
0!
0+
1.
03
07
0A
1D
0S
0Y
0Z
0^
1a
b000 e
#5775000000
1!
b00000000000000000000000000000000 #
0$
1%
b11011110101011011011111011101111 &
b10 )
b000000000000000000000000000 *
13
b10 5
b10 6
17
b10 9
b00000000000000000000000000000000 :
b11011110101011011011111011101111 ;
0<
1=
b000000000000000000000000000 @
b0010 L
b01 O
0T
1U
1Z
b000000000000000000000000000 \
#5800000000
0!
03
07
b0010 K
0Z
#5825000000
1!
b11 )
13
b11 5
b11 6
17
b11 9
1Z
#5850000000
0!
03
07
0Z
#5875000000
1!
1$
0%
b00 )
13
b00 5
b00 6
17
b00 9
1<
0=
1T
0U
1Z
#5900000000
0!
03
07
0Z
#5925000000
1!
b11011110101011011011111011101111 '
b01 )
13
b01 5
b01 6
17
b01 9
b11011110101011011011111011101111 ?
b11011110101011011011111011101111 G
1Z
#5950000000
0!
03
07
0Z
#5975000000
1!
0$
b10 )
13
b10 5
b10 6
17
b10 9
0<
b11 O
0T
1Z
#6000000000
0!
03
07
0Z
#6025000000
1!
b11 )
13
b11 5
b11 6
17
b11 9
1Z
#6050000000
0!
03
07
0Z
#6075000000
1!
b00 )
13
b00 5
b00 6
17
b00 9
1Z
#6100000000
0!
03
07
0Z
#6125000000
1!
b00000000000000000000000010100000 #
1$
0(
b01 )
b000000000000000000000000001 *
0+
1,
0.
13
b01 5
b01 6
17
b01 9
b00000000000000000000000010100000 :
1<
0>
b000000000000000000000000001 @
0A
1B
0D
b01 N
b01 O
1R
0S
1Z
b000000000000000000000000001 \
0^
1_
0a
b001 e
